{
    "/js/app.js": "/js/app.js",
    "/css/app.css": "/css/app.css",
    "/js/users.js": "/js/users.js",
    "/js/types.js": "/js/types.js",
    "/js/sales.js": "/js/sales.js",
    "/js/products.js": "/js/products.js",
    "/js/categories.js": "/js/categories.js"
}
